…
``` r
male_city_glm=city_glm|>
  filter(term == "victim_sexMale") |>
  select(city_state, estimate, conf.low, conf.high)
male_city_glm
```

    ## # A tibble: 47 × 4
    ## # Groups:   city_state [47]
    ##    city_state      estimate conf.low conf.high
    ##    <chr>              <dbl>    <dbl>     <dbl>
    ##  1 Albuquerque, NM    1.77     0.825     3.76 
    ##  2 Atlanta, GA        1.00     0.680     1.46 
    ##  3 Baltimore, MD      0.426    0.324     0.558
    ##  4 Baton Rouge, LA    0.381    0.204     0.684
    ##  5 Birmingham, AL     0.870    0.571     1.31 
    ##  6 Boston, MA         0.667    0.351     1.26 
    ##  7 Buffalo, NY        0.521    0.288     0.936
    ##  8 Charlotte, NC      0.884    0.551     1.39 
    ##  9 Chicago, IL        0.410    0.336     0.501
    ## 10 Cincinnati, OH     0.400    0.231     0.667
    ## # ℹ 37 more rows

- Create a plot that shows the estimated ORs and CIs for each city.
  Organize cities according to estimated OR, and comment on the plot.

``` r
city_results_arrange=male_city_glm|>
  arrange(estimate)|>
  mutate(city_state = as.factor(city_state))
city_results_arrange
```

    ## # A tibble: 47 × 4
    ## # Groups:   city_state [47]
    ##    city_state      estimate conf.low conf.high
    ##    <fct>              <dbl>    <dbl>     <dbl>
    ##  1 New York, NY       0.262    0.133     0.485
    ##  2 Baton Rouge, LA    0.381    0.204     0.684
    ##  3 Omaha, NE          0.382    0.199     0.711
    ##  4 Cincinnati, OH     0.400    0.231     0.667
    ##  5 Chicago, IL        0.410    0.336     0.501
    ##  6 Long Beach, CA     0.410    0.143     1.02 
    ##  7 San Diego, CA      0.413    0.191     0.830
    ##  8 Baltimore, MD      0.426    0.324     0.558
    ##  9 Pittsburgh, PA     0.431    0.263     0.696
    ## 10 Denver, CO         0.479    0.233     0.962
    ## # ℹ 37 more rows
…
